<?xml version="1.0" standalone="no"?>
<!DOCTYPE svg PUBLIC "-//W3C//DTD SVG 1.1//EN" "http://www.w3.org/Graphics/SVG/1.1/DTD/svg11.dtd" >
<!--
2014-3-17: Created.
-->
<svg xmlns="http://www.w3.org/2000/svg">
<metadata>
Created by FontForge 20120731 at Mon Mar 17 17:22:19 2014
 By Jefferson Stählin
Created by Jefferson St&#195;&#164;hlin with FontForge 2.0 (http://fontforge.sf.net)
</metadata>
<defs>
<font id="fontcustom" horiz-adv-x="512" >
  <font-face 
    font-family="fontcustom"
    font-weight="500"
    font-stretch="normal"
    units-per-em="512"
    panose-1="2 0 6 9 0 0 0 0 0 0"
    ascent="448"
    descent="-64"
    bbox="0 -64 492.464 323.584"
    underline-thickness="25.6"
    underline-position="-51.2"
    unicode-range="U+F100-F101"
  />
    <missing-glyph />
    <glyph glyph-name="uniF101" unicode="&#xf101;" 
d="M470.832 174.952c11.9521 0 21.6396 -9.68848 21.6318 -21.6484c0 -11.9521 -9.6875 -21.6396 -21.6396 -21.6396h-430.616c-11.9521 0 -21.6396 9.6875 -21.6396 21.6396s9.6875 21.6406 21.6396 21.6406h400.32v109.672c0 7.15137 -5.10449 12.9834 -11.3682 12.9834
c-8.84863 0 -21.376 -7.61523 -26.2881 -15.9834l-13.4639 -22.9199l7.86426 -4.45605c4.15918 -2.34375 5.91113 -7.77637 3.90332 -12.1201l-12.2236 -26.4805c-2 -4.34375 -7 -5.96777 -11.168 -3.62402l-47.6719 26.6963
c-4.16797 2.34375 -4.91992 7.08008 -1.67188 10.5918l20.7119 22.4639c3.24805 3.5127 9.24805 4.44824 13.416 2.09668l4.22363 -2.39258l13.6719 23.2881c9.64844 16.4326 30.5762 28.8242 48.6963 28.8242c20.5918 0 37.3359 -17.4717 37.3359 -38.96v-109.672h4.33594z
M453.504 117.96c5.7041 0 9.89648 -2.1123 11.5283 -5.79199c1.52734 -3.47168 0.383789 -7.67969 -3.13574 -11.5361c-9.27246 -10.1357 -23.9766 -22.9678 -45.793 -34.8154c0.600586 -1.08887 1.1123 -2.24023 1.39258 -3.5127l9.74414 -44.3682
c1.54395 -7 -2.88867 -13.9355 -9.9043 -15.4717c-0.944336 -0.208008 -1.87207 -0.303711 -2.79199 -0.303711c-5.96777 0 -11.3438 4.12793 -12.6719 10.208l-9.30371 42.376c-32.7441 -13.2959 -77.168 -23.3682 -137.049 -23.3682
c-40.376 0 -73.0713 4.62402 -99.6719 11.6885l-6.74414 -30.6963c-1.32715 -6.07227 -6.70312 -10.208 -12.6719 -10.208c-0.927734 0 -1.85547 0.0957031 -2.79199 0.303711c-7.00781 1.54395 -11.4316 8.47168 -9.89551 15.4717l7.23145 32.9609
c-38.9912 14.6553 -60.8154 34.5996 -72.3594 49.0312c-3.2002 4.0166 -4.04785 8.36816 -2.32812 11.9443c1.83203 3.81641 6.30371 6.08789 11.9521 6.08789h385.264z" />
    <glyph glyph-name="uniF100" unicode="&#xf100;" 
d="M448.655 14.1094h-409.601v-78.1094h-39.0547v277.194c0 5.08008 1.90527 9.68457 5.71582 13.8125c3.80957 4.12695 8.41309 6.19141 13.8115 6.19141s10.002 -2.06445 13.8125 -6.19141c3.80957 -4.12598 5.71484 -8.72949 5.71484 -13.8125v-160.029h448.655v-117.165
h-39.0547v78.1094zM100.495 133.18c-9.84277 0 -18.2578 3.49316 -25.2432 10.4775c-6.98535 6.98535 -10.4775 15.4004 -10.4775 25.2432s3.49219 18.2578 10.4775 25.2432c6.98535 6.98438 15.4004 10.4775 25.2432 10.4775s18.416 -3.49316 25.7188 -10.4775
c7.30371 -6.98438 10.9541 -15.3984 10.9541 -25.2432c0 -9.8418 -3.65039 -18.2568 -10.9541 -25.2432c-7.30273 -6.98438 -15.876 -10.4775 -25.7188 -10.4775zM487.71 82.6943h-403.885c-12.0664 0 -18.0986 4.92188 -18.0986 14.7646s6.03223 14.7646 18.0986 14.7646
h72.3945v55.248c0 5.08008 1.74609 9.36621 5.23926 12.8594c3.49219 3.49316 7.7793 5.23926 12.8594 5.23926h1.90527l282.909 -27.624c8.25195 -1.26953 15.0791 -4.28711 20.4805 -9.0498c5.39746 -4.7627 8.09668 -10.9541 8.09668 -18.5742v-47.6279z" />
  </font>
</defs></svg>
